%YAML 1.1
%TAG !u! tag:unity3d.com,2011:
--- !u!1 &843343545590631724
GameObject:
  m_ObjectHideFlags: 0
  m_CorrespondingSourceObject: {fileID: 0}
  m_PrefabInstance: {fileID: 0}
  m_PrefabAsset: {fileID: 0}
  serializedVersion: 6
  m_Component:
  - component: {fileID: 8161540891825354774}
  - component: {fileID: 2868236613237066488}
  m_Layer: 31
  m_Name: TP Grass
  m_TagString: Untagged
  m_Icon: {fileID: 0}
  m_NavMeshLayer: 0
  m_StaticEditorFlags: 0
  m_IsActive: 1
--- !u!4 &8161540891825354774
Transform:
  m_ObjectHideFlags: 0
  m_CorrespondingSourceObject: {fileID: 0}
  m_PrefabInstance: {fileID: 0}
  m_PrefabAsset: {fileID: 0}
  m_GameObject: {fileID: 843343545590631724}
  m_LocalRotation: {x: 0, y: 0, z: 0, w: 1}
  m_LocalPosition: {x: 0, y: 0, z: 0}
  m_LocalScale: {x: 1, y: 1, z: 1}
  m_Children:
  - {fileID: 7021910224235091193}
  m_Father: {fileID: 0}
  m_RootOrder: 0
  m_LocalEulerAnglesHint: {x: 0, y: 0, z: 0}
--- !u!156049354 &2868236613237066488
Grid:
  m_ObjectHideFlags: 0
  m_CorrespondingSourceObject: {fileID: 0}
  m_PrefabInstance: {fileID: 0}
  m_PrefabAsset: {fileID: 0}
  m_GameObject: {fileID: 843343545590631724}
  m_Enabled: 1
  m_CellSize: {x: 1, y: 1, z: 0}
  m_CellGap: {x: 0, y: 0, z: 0}
  m_CellLayout: 0
  m_CellSwizzle: 0
--- !u!1 &2493981774055160056
GameObject:
  m_ObjectHideFlags: 0
  m_CorrespondingSourceObject: {fileID: 0}
  m_PrefabInstance: {fileID: 0}
  m_PrefabAsset: {fileID: 0}
  serializedVersion: 6
  m_Component:
  - component: {fileID: 7021910224235091193}
  - component: {fileID: 8165932146131780143}
  - component: {fileID: 7607965363108511079}
  m_Layer: 0
  m_Name: Layer1
  m_TagString: Untagged
  m_Icon: {fileID: 0}
  m_NavMeshLayer: 0
  m_StaticEditorFlags: 0
  m_IsActive: 1
--- !u!4 &7021910224235091193
Transform:
  m_ObjectHideFlags: 0
  m_CorrespondingSourceObject: {fileID: 0}
  m_PrefabInstance: {fileID: 0}
  m_PrefabAsset: {fileID: 0}
  m_GameObject: {fileID: 2493981774055160056}
  m_LocalRotation: {x: -0, y: -0, z: -0, w: 1}
  m_LocalPosition: {x: 0, y: 0, z: 0}
  m_LocalScale: {x: 1, y: 1, z: 1}
  m_Children: []
  m_Father: {fileID: 8161540891825354774}
  m_RootOrder: 0
  m_LocalEulerAnglesHint: {x: 0, y: 0, z: 0}
--- !u!1839735485 &8165932146131780143
Tilemap:
  m_ObjectHideFlags: 0
  m_CorrespondingSourceObject: {fileID: 0}
  m_PrefabInstance: {fileID: 0}
  m_PrefabAsset: {fileID: 0}
  m_GameObject: {fileID: 2493981774055160056}
  m_Enabled: 1
  m_Tiles:
  - first: {x: -1, y: -9, z: 0}
    second:
      serializedVersion: 2
      m_TileIndex: 1
      m_TileSpriteIndex: 1
      m_TileMatrixIndex: 0
      m_TileColorIndex: 15
      m_TileObjectToInstantiateIndex: 65535
      dummyAlignment: 0
      m_AllTileFlags: 1073741825
  - first: {x: 0, y: -9, z: 0}
    second:
      serializedVersion: 2
      m_TileIndex: 0
      m_TileSpriteIndex: 0
      m_TileMatrixIndex: 0
      m_TileColorIndex: 15
      m_TileObjectToInstantiateIndex: 65535
      dummyAlignment: 0
      m_AllTileFlags: 1073741825
  - first: {x: 4, y: -9, z: 0}
    second:
      serializedVersion: 2
      m_TileIndex: 3
      m_TileSpriteIndex: 3
      m_TileMatrixIndex: 0
      m_TileColorIndex: 15
      m_TileObjectToInstantiateIndex: 65535
      dummyAlignment: 0
      m_AllTileFlags: 1073741825
  - first: {x: 5, y: -9, z: 0}
    second:
      serializedVersion: 2
      m_TileIndex: 2
      m_TileSpriteIndex: 2
      m_TileMatrixIndex: 0
      m_TileColorIndex: 15
      m_TileObjectToInstantiateIndex: 65535
      dummyAlignment: 0
      m_AllTileFlags: 1073741825
  - first: {x: -1, y: -8, z: 0}
    second:
      serializedVersion: 2
      m_TileIndex: 25
      m_TileSpriteIndex: 25
      m_TileMatrixIndex: 0
      m_TileColorIndex: 15
      m_TileObjectToInstantiateIndex: 65535
      dummyAlignment: 0
      m_AllTileFlags: 1073741825
  - first: {x: 0, y: -8, z: 0}
    second:
      serializedVersion: 2
      m_TileIndex: 24
      m_TileSpriteIndex: 29
      m_TileMatrixIndex: 0
      m_TileColorIndex: 15
      m_TileObjectToInstantiateIndex: 65535
      dummyAlignment: 0
      m_AllTileFlags: 1073741825
  - first: {x: 1, y: -8, z: 0}
    second:
      serializedVersion: 2
      m_TileIndex: 23
      m_TileSpriteIndex: 23
      m_TileMatrixIndex: 0
      m_TileColorIndex: 15
      m_TileObjectToInstantiateIndex: 65535
      dummyAlignment: 0
      m_AllTileFlags: 1073741825
  - first: {x: 2, y: -8, z: 0}
    second:
      serializedVersion: 2
      m_TileIndex: 22
      m_TileSpriteIndex: 22
      m_TileMatrixIndex: 0
      m_TileColorIndex: 15
      m_TileObjectToInstantiateIndex: 65535
      dummyAlignment: 0
      m_AllTileFlags: 1073741825
  - first: {x: -1, y: -7, z: 0}
    second:
      serializedVersion: 2
      m_TileIndex: 27
      m_TileSpriteIndex: 27
      m_TileMatrixIndex: 0
      m_TileColorIndex: 15
      m_TileObjectToInstantiateIndex: 65535
      dummyAlignment: 0
      m_AllTileFlags: 1073741825
  - first: {x: 0, y: -7, z: 0}
    second:
      serializedVersion: 2
      m_TileIndex: 26
      m_TileSpriteIndex: 24
      m_TileMatrixIndex: 0
      m_TileColorIndex: 15
      m_TileObjectToInstantiateIndex: 65535
      dummyAlignment: 0
      m_AllTileFlags: 1073741825
  - first: {x: 1, y: -7, z: 0}
    second:
      serializedVersion: 2
      m_TileIndex: 21
      m_TileSpriteIndex: 21
      m_TileMatrixIndex: 0
      m_TileColorIndex: 15
      m_TileObjectToInstantiateIndex: 65535
      dummyAlignment: 0
      m_AllTileFlags: 1073741825
  - first: {x: 2, y: -7, z: 0}
    second:
      serializedVersion: 2
      m_TileIndex: 20
      m_TileSpriteIndex: 20
      m_TileMatrixIndex: 0
      m_TileColorIndex: 15
      m_TileObjectToInstantiateIndex: 65535
      dummyAlignment: 0
      m_AllTileFlags: 1073741825
  - first: {x: 3, y: -7, z: 0}
    second:
      serializedVersion: 2
      m_TileIndex: 15
      m_TileSpriteIndex: 15
      m_TileMatrixIndex: 0
      m_TileColorIndex: 15
      m_TileObjectToInstantiateIndex: 65535
      dummyAlignment: 0
      m_AllTileFlags: 1073741825
  - first: {x: 4, y: -7, z: 0}
    second:
      serializedVersion: 2
      m_TileIndex: 14
      m_TileSpriteIndex: 14
      m_TileMatrixIndex: 0
      m_TileColorIndex: 15
      m_TileObjectToInstantiateIndex: 65535
      dummyAlignment: 0
      m_AllTileFlags: 1073741825
  - first: {x: 5, y: -7, z: 0}
    second:
      serializedVersion: 2
      m_TileIndex: 13
      m_TileSpriteIndex: 13
      m_TileMatrixIndex: 0
      m_TileColorIndex: 15
      m_TileObjectToInstantiateIndex: 65535
      dummyAlignment: 0
      m_AllTileFlags: 1073741825
  - first: {x: 6, y: -7, z: 0}
    second:
      serializedVersion: 2
      m_TileIndex: 12
      m_TileSpriteIndex: 12
      m_TileMatrixIndex: 0
      m_TileColorIndex: 15
      m_TileObjectToInstantiateIndex: 65535
      dummyAlignment: 0
      m_AllTileFlags: 1073741825
  - first: {x: -1, y: -6, z: 0}
    second:
      serializedVersion: 2
      m_TileIndex: 29
      m_TileSpriteIndex: 26
      m_TileMatrixIndex: 0
      m_TileColorIndex: 15
      m_TileObjectToInstantiateIndex: 65535
      dummyAlignment: 0
      m_AllTileFlags: 1073741825
  - first: {x: 0, y: -6, z: 0}
    second:
      serializedVersion: 2
      m_TileIndex: 28
      m_TileSpriteIndex: 28
      m_TileMatrixIndex: 0
      m_TileColorIndex: 15
      m_TileObjectToInstantiateIndex: 65535
      dummyAlignment: 0
      m_AllTileFlags: 1073741825
  - first: {x: 1, y: -6, z: 0}
    second:
      serializedVersion: 2
      m_TileIndex: 19
      m_TileSpriteIndex: 19
      m_TileMatrixIndex: 0
      m_TileColorIndex: 15
      m_TileObjectToInstantiateIndex: 65535
      dummyAlignment: 0
      m_AllTileFlags: 1073741825
  - first: {x: 2, y: -6, z: 0}
    second:
      serializedVersion: 2
      m_TileIndex: 18
      m_TileSpriteIndex: 18
      m_TileMatrixIndex: 0
      m_TileColorIndex: 15
      m_TileObjectToInstantiateIndex: 65535
      dummyAlignment: 0
      m_AllTileFlags: 1073741825
  - first: {x: 3, y: -6, z: 0}
    second:
      serializedVersion: 2
      m_TileIndex: 11
      m_TileSpriteIndex: 11
      m_TileMatrixIndex: 0
      m_TileColorIndex: 15
      m_TileObjectToInstantiateIndex: 65535
      dummyAlignment: 0
      m_AllTileFlags: 1073741825
  - first: {x: 4, y: -6, z: 0}
    second:
      serializedVersion: 2
      m_TileIndex: 10
      m_TileSpriteIndex: 10
      m_TileMatrixIndex: 0
      m_TileColorIndex: 15
      m_TileObjectToInstantiateIndex: 65535
      dummyAlignment: 0
      m_AllTileFlags: 1073741825
  - first: {x: 5, y: -6, z: 0}
    second:
      serializedVersion: 2
      m_TileIndex: 9
      m_TileSpriteIndex: 9
      m_TileMatrixIndex: 0
      m_TileColorIndex: 15
      m_TileObjectToInstantiateIndex: 65535
      dummyAlignment: 0
      m_AllTileFlags: 1073741825
  - first: {x: 6, y: -6, z: 0}
    second:
      serializedVersion: 2
      m_TileIndex: 8
      m_TileSpriteIndex: 8
      m_TileMatrixIndex: 0
      m_TileColorIndex: 15
      m_TileObjectToInstantiateIndex: 65535
      dummyAlignment: 0
      m_AllTileFlags: 1073741825
  - first: {x: -1, y: -5, z: 0}
    second:
      serializedVersion: 2
      m_TileIndex: 31
      m_TileSpriteIndex: 31
      m_TileMatrixIndex: 0
      m_TileColorIndex: 15
      m_TileObjectToInstantiateIndex: 65535
      dummyAlignment: 0
      m_AllTileFlags: 1073741825
  - first: {x: 0, y: -5, z: 0}
    second:
      serializedVersion: 2
      m_TileIndex: 30
      m_TileSpriteIndex: 30
      m_TileMatrixIndex: 0
      m_TileColorIndex: 15
      m_TileObjectToInstantiateIndex: 65535
      dummyAlignment: 0
      m_AllTileFlags: 1073741825
  - first: {x: 1, y: -5, z: 0}
    second:
      serializedVersion: 2
      m_TileIndex: 17
      m_TileSpriteIndex: 17
      m_TileMatrixIndex: 0
      m_TileColorIndex: 15
      m_TileObjectToInstantiateIndex: 65535
      dummyAlignment: 0
      m_AllTileFlags: 1073741825
  - first: {x: 2, y: -5, z: 0}
    second:
      serializedVersion: 2
      m_TileIndex: 16
      m_TileSpriteIndex: 16
      m_TileMatrixIndex: 0
      m_TileColorIndex: 15
      m_TileObjectToInstantiateIndex: 65535
      dummyAlignment: 0
      m_AllTileFlags: 1073741825
  - first: {x: 3, y: -5, z: 0}
    second:
      serializedVersion: 2
      m_TileIndex: 7
      m_TileSpriteIndex: 7
      m_TileMatrixIndex: 0
      m_TileColorIndex: 15
      m_TileObjectToInstantiateIndex: 65535
      dummyAlignment: 0
      m_AllTileFlags: 1073741825
  - first: {x: 4, y: -5, z: 0}
    second:
      serializedVersion: 2
      m_TileIndex: 6
      m_TileSpriteIndex: 6
      m_TileMatrixIndex: 0
      m_TileColorIndex: 15
      m_TileObjectToInstantiateIndex: 65535
      dummyAlignment: 0
      m_AllTileFlags: 1073741825
  - first: {x: 5, y: -5, z: 0}
    second:
      serializedVersion: 2
      m_TileIndex: 5
      m_TileSpriteIndex: 5
      m_TileMatrixIndex: 0
      m_TileColorIndex: 15
      m_TileObjectToInstantiateIndex: 65535
      dummyAlignment: 0
      m_AllTileFlags: 1073741825
  - first: {x: 6, y: -5, z: 0}
    second:
      serializedVersion: 2
      m_TileIndex: 4
      m_TileSpriteIndex: 4
      m_TileMatrixIndex: 0
      m_TileColorIndex: 15
      m_TileObjectToInstantiateIndex: 65535
      dummyAlignment: 0
      m_AllTileFlags: 1073741825
  - first: {x: -1, y: -3, z: 0}
    second:
      serializedVersion: 2
      m_TileIndex: 48
      m_TileSpriteIndex: 48
      m_TileMatrixIndex: 0
      m_TileColorIndex: 15
      m_TileObjectToInstantiateIndex: 65535
      dummyAlignment: 0
      m_AllTileFlags: 1073741825
  - first: {x: 0, y: -3, z: 0}
    second:
      serializedVersion: 2
      m_TileIndex: 59
      m_TileSpriteIndex: 50
      m_TileMatrixIndex: 0
      m_TileColorIndex: 15
      m_TileObjectToInstantiateIndex: 65535
      dummyAlignment: 0
      m_AllTileFlags: 1073741825
  - first: {x: 1, y: -3, z: 0}
    second:
      serializedVersion: 2
      m_TileIndex: 54
      m_TileSpriteIndex: 49
      m_TileMatrixIndex: 0
      m_TileColorIndex: 15
      m_TileObjectToInstantiateIndex: 65535
      dummyAlignment: 0
      m_AllTileFlags: 1073741825
  - first: {x: 2, y: -3, z: 0}
    second:
      serializedVersion: 2
      m_TileIndex: 49
      m_TileSpriteIndex: 59
      m_TileMatrixIndex: 0
      m_TileColorIndex: 15
      m_TileObjectToInstantiateIndex: 65535
      dummyAlignment: 0
      m_AllTileFlags: 1073741825
  - first: {x: 4, y: -3, z: 0}
    second:
      serializedVersion: 2
      m_TileIndex: 32
      m_TileSpriteIndex: 32
      m_TileMatrixIndex: 0
      m_TileColorIndex: 15
      m_TileObjectToInstantiateIndex: 65535
      dummyAlignment: 0
      m_AllTileFlags: 1073741825
  - first: {x: 5, y: -3, z: 0}
    second:
      serializedVersion: 2
      m_TileIndex: 33
      m_TileSpriteIndex: 33
      m_TileMatrixIndex: 0
      m_TileColorIndex: 15
      m_TileObjectToInstantiateIndex: 65535
      dummyAlignment: 0
      m_AllTileFlags: 1073741825
  - first: {x: 6, y: -3, z: 0}
    second:
      serializedVersion: 2
      m_TileIndex: 38
      m_TileSpriteIndex: 34
      m_TileMatrixIndex: 0
      m_TileColorIndex: 15
      m_TileObjectToInstantiateIndex: 65535
      dummyAlignment: 0
      m_AllTileFlags: 1073741825
  - first: {x: 7, y: -3, z: 0}
    second:
      serializedVersion: 2
      m_TileIndex: 43
      m_TileSpriteIndex: 38
      m_TileMatrixIndex: 0
      m_TileColorIndex: 15
      m_TileObjectToInstantiateIndex: 65535
      dummyAlignment: 0
      m_AllTileFlags: 1073741825
  - first: {x: -1, y: -2, z: 0}
    second:
      serializedVersion: 2
      m_TileIndex: 53
      m_TileSpriteIndex: 53
      m_TileMatrixIndex: 0
      m_TileColorIndex: 15
      m_TileObjectToInstantiateIndex: 65535
      dummyAlignment: 0
      m_AllTileFlags: 1073741825
  - first: {x: 0, y: -2, z: 0}
    second:
      serializedVersion: 2
      m_TileIndex: 52
      m_TileSpriteIndex: 52
      m_TileMatrixIndex: 0
      m_TileColorIndex: 15
      m_TileObjectToInstantiateIndex: 65535
      dummyAlignment: 0
      m_AllTileFlags: 1073741825
  - first: {x: 1, y: -2, z: 0}
    second:
      serializedVersion: 2
      m_TileIndex: 51
      m_TileSpriteIndex: 51
      m_TileMatrixIndex: 0
      m_TileColorIndex: 15
      m_TileObjectToInstantiateIndex: 65535
      dummyAlignment: 0
      m_AllTileFlags: 1073741825
  - first: {x: 2, y: -2, z: 0}
    second:
      serializedVersion: 2
      m_TileIndex: 50
      m_TileSpriteIndex: 54
      m_TileMatrixIndex: 0
      m_TileColorIndex: 15
      m_TileObjectToInstantiateIndex: 65535
      dummyAlignment: 0
      m_AllTileFlags: 1073741825
  - first: {x: 4, y: -2, z: 0}
    second:
      serializedVersion: 2
      m_TileIndex: 37
      m_TileSpriteIndex: 37
      m_TileMatrixIndex: 0
      m_TileColorIndex: 15
      m_TileObjectToInstantiateIndex: 65535
      dummyAlignment: 0
      m_AllTileFlags: 1073741825
  - first: {x: 5, y: -2, z: 0}
    second:
      serializedVersion: 2
      m_TileIndex: 36
      m_TileSpriteIndex: 36
      m_TileMatrixIndex: 0
      m_TileColorIndex: 15
      m_TileObjectToInstantiateIndex: 65535
      dummyAlignment: 0
      m_AllTileFlags: 1073741825
  - first: {x: 6, y: -2, z: 0}
    second:
      serializedVersion: 2
      m_TileIndex: 35
      m_TileSpriteIndex: 35
      m_TileMatrixIndex: 0
      m_TileColorIndex: 15
      m_TileObjectToInstantiateIndex: 65535
      dummyAlignment: 0
      m_AllTileFlags: 1073741825
  - first: {x: 7, y: -2, z: 0}
    second:
      serializedVersion: 2
      m_TileIndex: 34
      m_TileSpriteIndex: 43
      m_TileMatrixIndex: 0
      m_TileColorIndex: 15
      m_TileObjectToInstantiateIndex: 65535
      dummyAlignment: 0
      m_AllTileFlags: 1073741825
  - first: {x: -1, y: -1, z: 0}
    second:
      serializedVersion: 2
      m_TileIndex: 58
      m_TileSpriteIndex: 58
      m_TileMatrixIndex: 0
      m_TileColorIndex: 15
      m_TileObjectToInstantiateIndex: 65535
      dummyAlignment: 0
      m_AllTileFlags: 1073741825
  - first: {x: 0, y: -1, z: 0}
    second:
      serializedVersion: 2
      m_TileIndex: 57
      m_TileSpriteIndex: 57
      m_TileMatrixIndex: 0
      m_TileColorIndex: 15
      m_TileObjectToInstantiateIndex: 65535
      dummyAlignment: 0
      m_AllTileFlags: 1073741825
  - first: {x: 1, y: -1, z: 0}
    second:
      serializedVersion: 2
      m_TileIndex: 56
      m_TileSpriteIndex: 56
      m_TileMatrixIndex: 0
      m_TileColorIndex: 15
      m_TileObjectToInstantiateIndex: 65535
      dummyAlignment: 0
      m_AllTileFlags: 1073741825
  - first: {x: 2, y: -1, z: 0}
    second:
      serializedVersion: 2
      m_TileIndex: 55
      m_TileSpriteIndex: 55
      m_TileMatrixIndex: 0
      m_TileColorIndex: 15
      m_TileObjectToInstantiateIndex: 65535
      dummyAlignment: 0
      m_AllTileFlags: 1073741825
  - first: {x: 4, y: -1, z: 0}
    second:
      serializedVersion: 2
      m_TileIndex: 42
      m_TileSpriteIndex: 42
      m_TileMatrixIndex: 0
      m_TileColorIndex: 15
      m_TileObjectToInstantiateIndex: 65535
      dummyAlignment: 0
      m_AllTileFlags: 1073741825
  - first: {x: 5, y: -1, z: 0}
    second:
      serializedVersion: 2
      m_TileIndex: 41
      m_TileSpriteIndex: 41
      m_TileMatrixIndex: 0
      m_TileColorIndex: 15
      m_TileObjectToInstantiateIndex: 65535
      dummyAlignment: 0
      m_AllTileFlags: 1073741825
  - first: {x: 6, y: -1, z: 0}
    second:
      serializedVersion: 2
      m_TileIndex: 40
      m_TileSpriteIndex: 40
      m_TileMatrixIndex: 0
      m_TileColorIndex: 15
      m_TileObjectToInstantiateIndex: 65535
      dummyAlignment: 0
      m_AllTileFlags: 1073741825
  - first: {x: 7, y: -1, z: 0}
    second:
      serializedVersion: 2
      m_TileIndex: 39
      m_TileSpriteIndex: 39
      m_TileMatrixIndex: 0
      m_TileColorIndex: 15
      m_TileObjectToInstantiateIndex: 65535
      dummyAlignment: 0
      m_AllTileFlags: 1073741825
  - first: {x: -1, y: 0, z: 0}
    second:
      serializedVersion: 2
      m_TileIndex: 63
      m_TileSpriteIndex: 63
      m_TileMatrixIndex: 0
      m_TileColorIndex: 15
      m_TileObjectToInstantiateIndex: 65535
      dummyAlignment: 0
      m_AllTileFlags: 1073741825
  - first: {x: 0, y: 0, z: 0}
    second:
      serializedVersion: 2
      m_TileIndex: 62
      m_TileSpriteIndex: 62
      m_TileMatrixIndex: 0
      m_TileColorIndex: 15
      m_TileObjectToInstantiateIndex: 65535
      dummyAlignment: 0
      m_AllTileFlags: 1073741825
  - first: {x: 1, y: 0, z: 0}
    second:
      serializedVersion: 2
      m_TileIndex: 61
      m_TileSpriteIndex: 61
      m_TileMatrixIndex: 0
      m_TileColorIndex: 15
      m_TileObjectToInstantiateIndex: 65535
      dummyAlignment: 0
      m_AllTileFlags: 1073741825
  - first: {x: 2, y: 0, z: 0}
    second:
      serializedVersion: 2
      m_TileIndex: 60
      m_TileSpriteIndex: 60
      m_TileMatrixIndex: 0
      m_TileColorIndex: 15
      m_TileObjectToInstantiateIndex: 65535
      dummyAlignment: 0
      m_AllTileFlags: 1073741825
  - first: {x: 4, y: 0, z: 0}
    second:
      serializedVersion: 2
      m_TileIndex: 47
      m_TileSpriteIndex: 47
      m_TileMatrixIndex: 0
      m_TileColorIndex: 15
      m_TileObjectToInstantiateIndex: 65535
      dummyAlignment: 0
      m_AllTileFlags: 1073741825
  - first: {x: 5, y: 0, z: 0}
    second:
      serializedVersion: 2
      m_TileIndex: 46
      m_TileSpriteIndex: 46
      m_TileMatrixIndex: 0
      m_TileColorIndex: 15
      m_TileObjectToInstantiateIndex: 65535
      dummyAlignment: 0
      m_AllTileFlags: 1073741825
  - first: {x: 6, y: 0, z: 0}
    second:
      serializedVersion: 2
      m_TileIndex: 45
      m_TileSpriteIndex: 45
      m_TileMatrixIndex: 0
      m_TileColorIndex: 15
      m_TileObjectToInstantiateIndex: 65535
      dummyAlignment: 0
      m_AllTileFlags: 1073741825
  - first: {x: 7, y: 0, z: 0}
    second:
      serializedVersion: 2
      m_TileIndex: 44
      m_TileSpriteIndex: 44
      m_TileMatrixIndex: 0
      m_TileColorIndex: 15
      m_TileObjectToInstantiateIndex: 65535
      dummyAlignment: 0
      m_AllTileFlags: 1073741825
  - first: {x: -1, y: 1, z: 0}
    second:
      serializedVersion: 2
      m_TileIndex: 64
      m_TileSpriteIndex: 64
      m_TileMatrixIndex: 0
      m_TileColorIndex: 15
      m_TileObjectToInstantiateIndex: 65535
      dummyAlignment: 0
      m_AllTileFlags: 1073741826
  - first: {x: 0, y: 1, z: 0}
    second:
      serializedVersion: 2
      m_TileIndex: 64
      m_TileSpriteIndex: 64
      m_TileMatrixIndex: 0
      m_TileColorIndex: 15
      m_TileObjectToInstantiateIndex: 65535
      dummyAlignment: 0
      m_AllTileFlags: 1073741826
  m_AnimatedTiles: {}
  m_TileAssetArray:
  - m_RefCount: 1
    m_Data: {fileID: 11400000, guid: 780dbc86f9d96cb4ea6eb80cedc5297f, type: 2}
  - m_RefCount: 1
    m_Data: {fileID: 11400000, guid: 80d878f99cb4c7943b5c46bf5c1a6785, type: 2}
  - m_RefCount: 1
    m_Data: {fileID: 11400000, guid: cce0a8110310275428a80445dd873364, type: 2}
  - m_RefCount: 1
    m_Data: {fileID: 11400000, guid: fa699176380f55f42a54abdfa1c53794, type: 2}
  - m_RefCount: 1
    m_Data: {fileID: 11400000, guid: a9be3db0eddb3a94fb88a112d6deb131, type: 2}
  - m_RefCount: 1
    m_Data: {fileID: 11400000, guid: 4ade5514e3cccc441bce64010f27e527, type: 2}
  - m_RefCount: 1
    m_Data: {fileID: 11400000, guid: 72c1868f4ec438b4bb1113f44fa5c176, type: 2}
  - m_RefCount: 1
    m_Data: {fileID: 11400000, guid: 25c92bd1a1b2eda46b08a2414b277305, type: 2}
  - m_RefCount: 1
    m_Data: {fileID: 11400000, guid: d12fbd8400e101840be29555508b9a89, type: 2}
  - m_RefCount: 1
    m_Data: {fileID: 11400000, guid: 841517d60c3ee6342b4877ecf6e257cf, type: 2}
  - m_RefCount: 1
    m_Data: {fileID: 11400000, guid: ded49c94886a1af41a1b1025eadf0a6c, type: 2}
  - m_RefCount: 1
    m_Data: {fileID: 11400000, guid: 9130f7ce4b1b90146940f55caf75275d, type: 2}
  - m_RefCount: 1
    m_Data: {fileID: 11400000, guid: 7545dac8dcb9b6a48aa8ff5fd623e811, type: 2}
  - m_RefCount: 1
    m_Data: {fileID: 11400000, guid: adff4849f9e61d242bac11b47989a904, type: 2}
  - m_RefCount: 1
    m_Data: {fileID: 11400000, guid: b582a793ebd123e4ba5f4ca704ed259e, type: 2}
  - m_RefCount: 1
    m_Data: {fileID: 11400000, guid: 2576b2060c95e454e9ce0fb19d18f4b9, type: 2}
  - m_RefCount: 1
    m_Data: {fileID: 11400000, guid: 9d6c18cd380d5004c9f822deee6e523f, type: 2}
  - m_RefCount: 1
    m_Data: {fileID: 11400000, guid: f8dad7d3540a58241824a563088832e0, type: 2}
  - m_RefCount: 1
    m_Data: {fileID: 11400000, guid: c144af5afd6ab544390bce2a0d1ce972, type: 2}
  - m_RefCount: 1
    m_Data: {fileID: 11400000, guid: 8159d41dde44ab340a514cf609a4bb8a, type: 2}
  - m_RefCount: 1
    m_Data: {fileID: 11400000, guid: 3d9dc795275adfd48af7618f29844554, type: 2}
  - m_RefCount: 1
    m_Data: {fileID: 11400000, guid: fc84b2b02e60d1546a8a75ba64b5d5f1, type: 2}
  - m_RefCount: 1
    m_Data: {fileID: 11400000, guid: cdf8801e81d05d149ac589cebd5e1dd8, type: 2}
  - m_RefCount: 1
    m_Data: {fileID: 11400000, guid: fbde4feddd010b84a8e85a316d96b45e, type: 2}
  - m_RefCount: 1
    m_Data: {fileID: 11400000, guid: bcf612aaeb488bf48b64a976b440426d, type: 2}
  - m_RefCount: 1
    m_Data: {fileID: 11400000, guid: 1eb88b0997574584f9e6103018404c4c, type: 2}
  - m_RefCount: 1
    m_Data: {fileID: 11400000, guid: 9d261fa57a186304eb7c71bcd3920f52, type: 2}
  - m_RefCount: 1
    m_Data: {fileID: 11400000, guid: d3860dc7511661042a0e40d8d53db3a3, type: 2}
  - m_RefCount: 1
    m_Data: {fileID: 11400000, guid: 32a9ac03c75f1f34991a1ef854a8eb4a, type: 2}
  - m_RefCount: 1
    m_Data: {fileID: 11400000, guid: 6d62ee5bebfab4543a4d42e4d00e4921, type: 2}
  - m_RefCount: 1
    m_Data: {fileID: 11400000, guid: d85a59ea5ef7b6d488d8434610470f09, type: 2}
  - m_RefCount: 1
    m_Data: {fileID: 11400000, guid: b52eb31537a3c0f4d9b909925745af72, type: 2}
  - m_RefCount: 1
    m_Data: {fileID: 11400000, guid: 70b8e49e6af191c4c987c778977a5dba, type: 2}
  - m_RefCount: 1
    m_Data: {fileID: 11400000, guid: 6af3ae26591b05548b82024e5520c670, type: 2}
  - m_RefCount: 1
    m_Data: {fileID: 11400000, guid: 57824cd7e1612d14090d617a256eca53, type: 2}
  - m_RefCount: 1
    m_Data: {fileID: 11400000, guid: 57b6fab8e8adf24478f260a85ba4fa71, type: 2}
  - m_RefCount: 1
    m_Data: {fileID: 11400000, guid: 2c670dc28da29e54da4c78aac2caebe8, type: 2}
  - m_RefCount: 1
    m_Data: {fileID: 11400000, guid: 5b0fa72a7621582478a135416a07cddb, type: 2}
  - m_RefCount: 1
    m_Data: {fileID: 11400000, guid: 2367cb1fa5ebd9d4d9082b473634a906, type: 2}
  - m_RefCount: 1
    m_Data: {fileID: 11400000, guid: a9932c56762082e42ae3a877f0c79f7d, type: 2}
  - m_RefCount: 1
    m_Data: {fileID: 11400000, guid: 8743c8559250174429e1d0c2e08b2e77, type: 2}
  - m_RefCount: 1
    m_Data: {fileID: 11400000, guid: 162b2c3c7ed3c8240995ad1799a0339a, type: 2}
  - m_RefCount: 1
    m_Data: {fileID: 11400000, guid: fedd651a42c94b044bf92e0da3bb53df, type: 2}
  - m_RefCount: 1
    m_Data: {fileID: 11400000, guid: 34303d25145ab104f8fabf97fe65552d, type: 2}
  - m_RefCount: 1
    m_Data: {fileID: 11400000, guid: 78357bde4dab3464886f927c077dc765, type: 2}
  - m_RefCount: 1
    m_Data: {fileID: 11400000, guid: 0cb9748ff72f7c74ab513387ceba11ad, type: 2}
  - m_RefCount: 1
    m_Data: {fileID: 11400000, guid: abe9370c58435f244a894542a9d0f78d, type: 2}
  - m_RefCount: 1
    m_Data: {fileID: 11400000, guid: 4c8943e2da4e8964bb3eb170c1aaba9f, type: 2}
  - m_RefCount: 1
    m_Data: {fileID: 11400000, guid: cd739c4b4eb31934494017ea1d34324b, type: 2}
  - m_RefCount: 1
    m_Data: {fileID: 11400000, guid: f705d9780fd6a6847a33cc62a5c4b9ac, type: 2}
  - m_RefCount: 1
    m_Data: {fileID: 11400000, guid: 8143e435c2ff5f342951e4e9991c11ea, type: 2}
  - m_RefCount: 1
    m_Data: {fileID: 11400000, guid: f332210fa22ba8549b6ac4d19975e7b1, type: 2}
  - m_RefCount: 1
    m_Data: {fileID: 11400000, guid: aa14e442c407b164a9e0bba1fd35004d, type: 2}
  - m_RefCount: 1
    m_Data: {fileID: 11400000, guid: 76a0eb89921157e448ea699f93e95564, type: 2}
  - m_RefCount: 1
    m_Data: {fileID: 11400000, guid: 1d9b2716edff8d7418583a4c52cba7b7, type: 2}
  - m_RefCount: 1
    m_Data: {fileID: 11400000, guid: 5451d01092d6a0947a1059da45c09ebe, type: 2}
  - m_RefCount: 1
    m_Data: {fileID: 11400000, guid: cf6b59b7c1dad88438263b3160222715, type: 2}
  - m_RefCount: 1
    m_Data: {fileID: 11400000, guid: 463040bb33823754e9e159a83e20321a, type: 2}
  - m_RefCount: 1
    m_Data: {fileID: 11400000, guid: 54b6893f2afe6354ebdccde3f53a6a65, type: 2}
  - m_RefCount: 1
    m_Data: {fileID: 11400000, guid: fedab419fdbdeea488795e51c83727c9, type: 2}
  - m_RefCount: 1
    m_Data: {fileID: 11400000, guid: 6a5be8683b2bb5c4cafdd9a8407e5654, type: 2}
  - m_RefCount: 1
    m_Data: {fileID: 11400000, guid: 6da925407638afc4db4e37eb2ec98c76, type: 2}
  - m_RefCount: 1
    m_Data: {fileID: 11400000, guid: ae68d965a4218a94ca2134f0ae2007c4, type: 2}
  - m_RefCount: 1
    m_Data: {fileID: 11400000, guid: 7b6e368fc0ee90b4ca09e0f71344589a, type: 2}
  - m_RefCount: 2
    m_Data: {fileID: 11400000, guid: 36db6efad0fed9348a6c6c60c01954e8, type: 2}
  m_TileSpriteArray:
  - m_RefCount: 1
    m_Data: {fileID: 21300122, guid: 1c9ed9d1200c29d4cbfd2071028c1cd5, type: 3}
  - m_RefCount: 1
    m_Data: {fileID: 21300120, guid: 1c9ed9d1200c29d4cbfd2071028c1cd5, type: 3}
  - m_RefCount: 1
    m_Data: {fileID: 21300126, guid: 1c9ed9d1200c29d4cbfd2071028c1cd5, type: 3}
  - m_RefCount: 1
    m_Data: {fileID: 21300124, guid: 1c9ed9d1200c29d4cbfd2071028c1cd5, type: 3}
  - m_RefCount: 1
    m_Data: {fileID: 21300078, guid: 1c9ed9d1200c29d4cbfd2071028c1cd5, type: 3}
  - m_RefCount: 1
    m_Data: {fileID: 21300076, guid: 1c9ed9d1200c29d4cbfd2071028c1cd5, type: 3}
  - m_RefCount: 1
    m_Data: {fileID: 21300074, guid: 1c9ed9d1200c29d4cbfd2071028c1cd5, type: 3}
  - m_RefCount: 1
    m_Data: {fileID: 21300072, guid: 1c9ed9d1200c29d4cbfd2071028c1cd5, type: 3}
  - m_RefCount: 1
    m_Data: {fileID: 21300094, guid: 1c9ed9d1200c29d4cbfd2071028c1cd5, type: 3}
  - m_RefCount: 1
    m_Data: {fileID: 21300092, guid: 1c9ed9d1200c29d4cbfd2071028c1cd5, type: 3}
  - m_RefCount: 1
    m_Data: {fileID: 21300090, guid: 1c9ed9d1200c29d4cbfd2071028c1cd5, type: 3}
  - m_RefCount: 1
    m_Data: {fileID: 21300088, guid: 1c9ed9d1200c29d4cbfd2071028c1cd5, type: 3}
  - m_RefCount: 1
    m_Data: {fileID: 21300110, guid: 1c9ed9d1200c29d4cbfd2071028c1cd5, type: 3}
  - m_RefCount: 1
    m_Data: {fileID: 21300108, guid: 1c9ed9d1200c29d4cbfd2071028c1cd5, type: 3}
  - m_RefCount: 1
    m_Data: {fileID: 21300106, guid: 1c9ed9d1200c29d4cbfd2071028c1cd5, type: 3}
  - m_RefCount: 1
    m_Data: {fileID: 21300104, guid: 1c9ed9d1200c29d4cbfd2071028c1cd5, type: 3}
  - m_RefCount: 1
    m_Data: {fileID: 21300070, guid: 1c9ed9d1200c29d4cbfd2071028c1cd5, type: 3}
  - m_RefCount: 1
    m_Data: {fileID: 21300068, guid: 1c9ed9d1200c29d4cbfd2071028c1cd5, type: 3}
  - m_RefCount: 1
    m_Data: {fileID: 21300086, guid: 1c9ed9d1200c29d4cbfd2071028c1cd5, type: 3}
  - m_RefCount: 1
    m_Data: {fileID: 21300084, guid: 1c9ed9d1200c29d4cbfd2071028c1cd5, type: 3}
  - m_RefCount: 1
    m_Data: {fileID: 21300102, guid: 1c9ed9d1200c29d4cbfd2071028c1cd5, type: 3}
  - m_RefCount: 1
    m_Data: {fileID: 21300100, guid: 1c9ed9d1200c29d4cbfd2071028c1cd5, type: 3}
  - m_RefCount: 1
    m_Data: {fileID: 21300118, guid: 1c9ed9d1200c29d4cbfd2071028c1cd5, type: 3}
  - m_RefCount: 1
    m_Data: {fileID: 21300116, guid: 1c9ed9d1200c29d4cbfd2071028c1cd5, type: 3}
  - m_RefCount: 1
    m_Data: {fileID: 21300098, guid: 1c9ed9d1200c29d4cbfd2071028c1cd5, type: 3}
  - m_RefCount: 1
    m_Data: {fileID: 21300112, guid: 1c9ed9d1200c29d4cbfd2071028c1cd5, type: 3}
  - m_RefCount: 1
    m_Data: {fileID: 21300080, guid: 1c9ed9d1200c29d4cbfd2071028c1cd5, type: 3}
  - m_RefCount: 1
    m_Data: {fileID: 21300096, guid: 1c9ed9d1200c29d4cbfd2071028c1cd5, type: 3}
  - m_RefCount: 1
    m_Data: {fileID: 21300082, guid: 1c9ed9d1200c29d4cbfd2071028c1cd5, type: 3}
  - m_RefCount: 1
    m_Data: {fileID: 21300114, guid: 1c9ed9d1200c29d4cbfd2071028c1cd5, type: 3}
  - m_RefCount: 1
    m_Data: {fileID: 21300066, guid: 1c9ed9d1200c29d4cbfd2071028c1cd5, type: 3}
  - m_RefCount: 1
    m_Data: {fileID: 21300064, guid: 1c9ed9d1200c29d4cbfd2071028c1cd5, type: 3}
  - m_RefCount: 1
    m_Data: {fileID: 21300062, guid: 1c9ed9d1200c29d4cbfd2071028c1cd5, type: 3}
  - m_RefCount: 1
    m_Data: {fileID: 21300060, guid: 1c9ed9d1200c29d4cbfd2071028c1cd5, type: 3}
  - m_RefCount: 1
    m_Data: {fileID: 21300042, guid: 1c9ed9d1200c29d4cbfd2071028c1cd5, type: 3}
  - m_RefCount: 1
    m_Data: {fileID: 21300056, guid: 1c9ed9d1200c29d4cbfd2071028c1cd5, type: 3}
  - m_RefCount: 1
    m_Data: {fileID: 21300046, guid: 1c9ed9d1200c29d4cbfd2071028c1cd5, type: 3}
  - m_RefCount: 1
    m_Data: {fileID: 21300044, guid: 1c9ed9d1200c29d4cbfd2071028c1cd5, type: 3}
  - m_RefCount: 1
    m_Data: {fileID: 21300024, guid: 1c9ed9d1200c29d4cbfd2071028c1cd5, type: 3}
  - m_RefCount: 1
    m_Data: {fileID: 21300040, guid: 1c9ed9d1200c29d4cbfd2071028c1cd5, type: 3}
  - m_RefCount: 1
    m_Data: {fileID: 21300030, guid: 1c9ed9d1200c29d4cbfd2071028c1cd5, type: 3}
  - m_RefCount: 1
    m_Data: {fileID: 21300028, guid: 1c9ed9d1200c29d4cbfd2071028c1cd5, type: 3}
  - m_RefCount: 1
    m_Data: {fileID: 21300026, guid: 1c9ed9d1200c29d4cbfd2071028c1cd5, type: 3}
  - m_RefCount: 1
    m_Data: {fileID: 21300058, guid: 1c9ed9d1200c29d4cbfd2071028c1cd5, type: 3}
  - m_RefCount: 1
    m_Data: {fileID: 21300014, guid: 1c9ed9d1200c29d4cbfd2071028c1cd5, type: 3}
  - m_RefCount: 1
    m_Data: {fileID: 21300012, guid: 1c9ed9d1200c29d4cbfd2071028c1cd5, type: 3}
  - m_RefCount: 1
    m_Data: {fileID: 21300010, guid: 1c9ed9d1200c29d4cbfd2071028c1cd5, type: 3}
  - m_RefCount: 1
    m_Data: {fileID: 21300008, guid: 1c9ed9d1200c29d4cbfd2071028c1cd5, type: 3}
  - m_RefCount: 1
    m_Data: {fileID: 21300054, guid: 1c9ed9d1200c29d4cbfd2071028c1cd5, type: 3}
  - m_RefCount: 1
    m_Data: {fileID: 21300036, guid: 1c9ed9d1200c29d4cbfd2071028c1cd5, type: 3}
  - m_RefCount: 1
    m_Data: {fileID: 21300016, guid: 1c9ed9d1200c29d4cbfd2071028c1cd5, type: 3}
  - m_RefCount: 1
    m_Data: {fileID: 21300048, guid: 1c9ed9d1200c29d4cbfd2071028c1cd5, type: 3}
  - m_RefCount: 1
    m_Data: {fileID: 21300128, guid: 1c9ed9d1200c29d4cbfd2071028c1cd5, type: 3}
  - m_RefCount: 1
    m_Data: {fileID: 21300038, guid: 1c9ed9d1200c29d4cbfd2071028c1cd5, type: 3}
  - m_RefCount: 1
    m_Data: {fileID: 21300050, guid: 1c9ed9d1200c29d4cbfd2071028c1cd5, type: 3}
  - m_RefCount: 1
    m_Data: {fileID: 21300034, guid: 1c9ed9d1200c29d4cbfd2071028c1cd5, type: 3}
  - m_RefCount: 1
    m_Data: {fileID: 21300032, guid: 1c9ed9d1200c29d4cbfd2071028c1cd5, type: 3}
  - m_RefCount: 1
    m_Data: {fileID: 21300020, guid: 1c9ed9d1200c29d4cbfd2071028c1cd5, type: 3}
  - m_RefCount: 1
    m_Data: {fileID: 21300018, guid: 1c9ed9d1200c29d4cbfd2071028c1cd5, type: 3}
  - m_RefCount: 1
    m_Data: {fileID: 21300052, guid: 1c9ed9d1200c29d4cbfd2071028c1cd5, type: 3}
  - m_RefCount: 1
    m_Data: {fileID: 21300006, guid: 1c9ed9d1200c29d4cbfd2071028c1cd5, type: 3}
  - m_RefCount: 1
    m_Data: {fileID: 21300004, guid: 1c9ed9d1200c29d4cbfd2071028c1cd5, type: 3}
  - m_RefCount: 1
    m_Data: {fileID: 21300002, guid: 1c9ed9d1200c29d4cbfd2071028c1cd5, type: 3}
  - m_RefCount: 1
    m_Data: {fileID: 21300000, guid: 1c9ed9d1200c29d4cbfd2071028c1cd5, type: 3}
  - m_RefCount: 2
    m_Data: {fileID: -8377130690987618698, guid: dc747d0a3cdf6594f9f275fdd2a48b4b,
      type: 3}
  m_TileMatrixArray:
  - m_RefCount: 66
    m_Data:
      e00: 1
      e01: 0
      e02: 0
      e03: 0
      e10: 0
      e11: 1
      e12: 0
      e13: 0
      e20: 0
      e21: 0
      e22: 1
      e23: 0
      e30: 0
      e31: 0
      e32: 0
      e33: 1
  m_TileColorArray:
  - m_RefCount: 0
    m_Data: {r: 1e-45, g: 1e-45, b: 1e-45, a: 1e-45}
  - m_RefCount: 0
    m_Data: {r: NaN, g: NaN, b: NaN, a: NaN}
  - m_RefCount: 0
    m_Data: {r: NaN, g: NaN, b: NaN, a: NaN}
  - m_RefCount: 0
    m_Data: {r: NaN, g: NaN, b: NaN, a: NaN}
  - m_RefCount: 0
    m_Data: {r: NaN, g: NaN, b: NaN, a: NaN}
  - m_RefCount: 0
    m_Data: {r: 0, g: 0, b: 0, a: 0}
  - m_RefCount: 0
    m_Data: {r: 1e-45, g: 1e-45, b: 1e-45, a: 1e-45}
  - m_RefCount: 0
    m_Data: {r: NaN, g: NaN, b: NaN, a: NaN}
  - m_RefCount: 0
    m_Data: {r: NaN, g: NaN, b: NaN, a: NaN}
  - m_RefCount: 0
    m_Data: {r: NaN, g: NaN, b: NaN, a: NaN}
  - m_RefCount: 0
    m_Data: {r: 0, g: 0, b: 0, a: 0}
  - m_RefCount: 0
    m_Data: {r: 1e-45, g: 1e-45, b: 1e-45, a: 1e-45}
  - m_RefCount: 0
    m_Data: {r: NaN, g: NaN, b: NaN, a: NaN}
  - m_RefCount: 0
    m_Data: {r: NaN, g: NaN, b: NaN, a: NaN}
  - m_RefCount: 0
    m_Data: {r: NaN, g: NaN, b: NaN, a: NaN}
  - m_RefCount: 66
    m_Data: {r: 1, g: 1, b: 1, a: 1}
  m_TileObjectToInstantiateArray: []
  m_AnimationFrameRate: 1
  m_Color: {r: 1, g: 1, b: 1, a: 1}
  m_Origin: {x: -11, y: -14, z: 0}
  m_Size: {x: 22, y: 24, z: 1}
  m_TileAnchor: {x: 0.5, y: 0.5, z: 0}
  m_TileOrientation: 0
  m_TileOrientationMatrix:
    e00: 1
    e01: 0
    e02: 0
    e03: 0
    e10: 0
    e11: 1
    e12: 0
    e13: 0
    e20: 0
    e21: 0
    e22: 1
    e23: 0
    e30: 0
    e31: 0
    e32: 0
    e33: 1
--- !u!483693784 &7607965363108511079
TilemapRenderer:
  m_ObjectHideFlags: 0
  m_CorrespondingSourceObject: {fileID: 0}
  m_PrefabInstance: {fileID: 0}
  m_PrefabAsset: {fileID: 0}
  m_GameObject: {fileID: 2493981774055160056}
  m_Enabled: 1
  m_CastShadows: 0
  m_ReceiveShadows: 0
  m_DynamicOccludee: 0
  m_MotionVectors: 1
  m_LightProbeUsage: 0
  m_ReflectionProbeUsage: 0
  m_RayTracingMode: 0
  m_RayTraceProcedural: 0
  m_RenderingLayerMask: 1
  m_RendererPriority: 0
  m_Materials:
  - {fileID: 10754, guid: 0000000000000000f000000000000000, type: 0}
  m_StaticBatchInfo:
    firstSubMesh: 0
    subMeshCount: 0
  m_StaticBatchRoot: {fileID: 0}
  m_ProbeAnchor: {fileID: 0}
  m_LightProbeVolumeOverride: {fileID: 0}
  m_ScaleInLightmap: 1
  m_ReceiveGI: 1
  m_PreserveUVs: 0
  m_IgnoreNormalsForChartDetection: 0
  m_ImportantGI: 0
  m_StitchLightmapSeams: 0
  m_SelectedEditorRenderState: 0
  m_MinimumChartSize: 4
  m_AutoUVMaxDistance: 0.5
  m_AutoUVMaxAngle: 89
  m_LightmapParameters: {fileID: 0}
  m_SortingLayerID: 0
  m_SortingLayer: 0
  m_SortingOrder: 0
  m_ChunkSize: {x: 32, y: 32, z: 32}
  m_ChunkCullingBounds: {x: 0, y: 0, z: 0}
  m_MaxChunkCount: 16
  m_MaxFrameAge: 16
  m_SortOrder: 0
  m_Mode: 0
  m_DetectChunkCullingBounds: 0
  m_MaskInteraction: 0
--- !u!114 &5956233882214039292
MonoBehaviour:
  m_ObjectHideFlags: 0
  m_CorrespondingSourceObject: {fileID: 0}
  m_PrefabInstance: {fileID: 0}
  m_PrefabAsset: {fileID: 0}
  m_GameObject: {fileID: 0}
  m_Enabled: 1
  m_EditorHideFlags: 0
  m_Script: {fileID: 12395, guid: 0000000000000000e000000000000000, type: 0}
  m_Name: Palette Settings
  m_EditorClassIdentifier: 
  cellSizing: 0
  m_TransparencySortMode: 0
  m_TransparencySortAxis: {x: 0, y: 0, z: 1}
