[api-updater (non-obsolete-error-filter)] 2022-11-21 AM 2:16:34 : Starting C:/Program Files/Unity/Hub/Editor/2020.3.22f1/Editor/Data/Tools/ScriptUpdater/APIUpdater.NonObsoleteApiUpdaterDetector.exe
[api-updater (non-obsolete-error-filter)] Exception caught while loading types from C:\Users\SuperHong\Documents\GitHub\GAMESERVER_PROJECT\client\RPG_Client\Library\ScriptAssemblies\Unity.CollabProxy.Editor.dll (some types may not be loaded)
	Exception of type 'System.Reflection.ReflectionTypeLoadException' was thrown.
	  at (wrapper managed-to-native) System.Reflection.Assembly.GetTypes(System.Reflection.Assembly,bool)
  at System.Reflection.Assembly.GetTypes () [0x00000] in <695d1cc93cca45069c528c15c9fdd749>:0 
  at APIUpdater.NonObsoleteApiUpdaterDetector.ExtraInfoParser+<LoadTypesWithMovedFromAttributeAsync>d__3.MoveNext () [0x000c8] in <68bff7873e0e4aa69a14dfc30bebbe3e>:0 
	Could not load file or assembly 'UnityEditor.CoreModule, Version=0.0.0.0, Culture=neutral, PublicKeyToken=null' or one of its dependencies.

[api-updater (non-obsolete-error-filter)] Exception caught while loading types from C:\Users\SuperHong\Documents\GitHub\GAMESERVER_PROJECT\client\RPG_Client\Library\ScriptAssemblies\Unity.TextMeshPro.Editor.dll (some types may not be loaded)
	Exception of type 'System.Reflection.ReflectionTypeLoadException' was thrown.
	  at (wrapper managed-to-native) System.Reflection.Assembly.GetTypes(System.Reflection.Assembly,bool)
  at System.Reflection.Assembly.GetTypes () [0x00000] in <695d1cc93cca45069c528c15c9fdd749>:0 
  at APIUpdater.NonObsoleteApiUpdaterDetector.ExtraInfoParser+<LoadTypesWithMovedFromAttributeAsync>d__3.MoveNext () [0x000c8] in <68bff7873e0e4aa69a14dfc30bebbe3e>:0 
	Could not load file or assembly 'UnityEditor.CoreModule, Version=0.0.0.0, Culture=neutral, PublicKeyToken=null' or one of its dependencies.

[api-updater (non-obsolete-error-filter)] 
----------------------------------
jit/startup time      : 717.3827ms
moved types parse time: 58ms
candidates parse time : 1ms
C# parse time         : 292ms
candidates check time : 70ms
console write time    : 0ms

[api-updater (non-obsolete-error-filter)] 2022-11-21 AM 2:17:45 : Starting C:/Program Files/Unity/Hub/Editor/2020.3.22f1/Editor/Data/Tools/ScriptUpdater/APIUpdater.NonObsoleteApiUpdaterDetector.exe
[api-updater (non-obsolete-error-filter)] Exception caught while loading types from C:\Users\SuperHong\Documents\GitHub\GAMESERVER_PROJECT\client\RPG_Client\Library\ScriptAssemblies\Unity.CollabProxy.Editor.dll (some types may not be loaded)
	Exception of type 'System.Reflection.ReflectionTypeLoadException' was thrown.
	  at (wrapper managed-to-native) System.Reflection.Assembly.GetTypes(System.Reflection.Assembly,bool)
  at System.Reflection.Assembly.GetTypes () [0x00000] in <695d1cc93cca45069c528c15c9fdd749>:0 
  at APIUpdater.NonObsoleteApiUpdaterDetector.ExtraInfoParser+<LoadTypesWithMovedFromAttributeAsync>d__3.MoveNext () [0x000c8] in <68bff7873e0e4aa69a14dfc30bebbe3e>:0 
	Could not load file or assembly 'UnityEditor.CoreModule, Version=0.0.0.0, Culture=neutral, PublicKeyToken=null' or one of its dependencies.

[api-updater (non-obsolete-error-filter)] Exception caught while loading types from C:\Users\SuperHong\Documents\GitHub\GAMESERVER_PROJECT\client\RPG_Client\Library\ScriptAssemblies\Unity.TextMeshPro.Editor.dll (some types may not be loaded)
	Exception of type 'System.Reflection.ReflectionTypeLoadException' was thrown.
	  at (wrapper managed-to-native) System.Reflection.Assembly.GetTypes(System.Reflection.Assembly,bool)
  at System.Reflection.Assembly.GetTypes () [0x00000] in <695d1cc93cca45069c528c15c9fdd749>:0 
  at APIUpdater.NonObsoleteApiUpdaterDetector.ExtraInfoParser+<LoadTypesWithMovedFromAttributeAsync>d__3.MoveNext () [0x000c8] in <68bff7873e0e4aa69a14dfc30bebbe3e>:0 
	Could not load file or assembly 'UnityEditor.CoreModule, Version=0.0.0.0, Culture=neutral, PublicKeyToken=null' or one of its dependencies.

[api-updater (non-obsolete-error-filter)] 
----------------------------------
jit/startup time      : 113.6972ms
moved types parse time: 69ms
candidates parse time : 2ms
C# parse time         : 259ms
candidates check time : 149ms
console write time    : 0ms

[api-updater (non-obsolete-error-filter)] 2022-11-21 AM 2:18:04 : Starting C:/Program Files/Unity/Hub/Editor/2020.3.22f1/Editor/Data/Tools/ScriptUpdater/APIUpdater.NonObsoleteApiUpdaterDetector.exe
[api-updater (non-obsolete-error-filter)] Exception caught while loading types from C:\Users\SuperHong\Documents\GitHub\GAMESERVER_PROJECT\client\RPG_Client\Library\ScriptAssemblies\Unity.CollabProxy.Editor.dll (some types may not be loaded)
	Exception of type 'System.Reflection.ReflectionTypeLoadException' was thrown.
	  at (wrapper managed-to-native) System.Reflection.Assembly.GetTypes(System.Reflection.Assembly,bool)
  at System.Reflection.Assembly.GetTypes () [0x00000] in <695d1cc93cca45069c528c15c9fdd749>:0 
  at APIUpdater.NonObsoleteApiUpdaterDetector.ExtraInfoParser+<LoadTypesWithMovedFromAttributeAsync>d__3.MoveNext () [0x000c8] in <68bff7873e0e4aa69a14dfc30bebbe3e>:0 
	Could not load file or assembly 'UnityEditor.CoreModule, Version=0.0.0.0, Culture=neutral, PublicKeyToken=null' or one of its dependencies.

[api-updater (non-obsolete-error-filter)] Exception caught while loading types from C:\Users\SuperHong\Documents\GitHub\GAMESERVER_PROJECT\client\RPG_Client\Library\ScriptAssemblies\Unity.TextMeshPro.Editor.dll (some types may not be loaded)
	Exception of type 'System.Reflection.ReflectionTypeLoadException' was thrown.
	  at (wrapper managed-to-native) System.Reflection.Assembly.GetTypes(System.Reflection.Assembly,bool)
  at System.Reflection.Assembly.GetTypes () [0x00000] in <695d1cc93cca45069c528c15c9fdd749>:0 
  at APIUpdater.NonObsoleteApiUpdaterDetector.ExtraInfoParser+<LoadTypesWithMovedFromAttributeAsync>d__3.MoveNext () [0x000c8] in <68bff7873e0e4aa69a14dfc30bebbe3e>:0 
	Could not load file or assembly 'UnityEditor.CoreModule, Version=0.0.0.0, Culture=neutral, PublicKeyToken=null' or one of its dependencies.

[api-updater (non-obsolete-error-filter)] 
----------------------------------
jit/startup time      : 100.9021ms
moved types parse time: 51ms
candidates parse time : 1ms
C# parse time         : 223ms
candidates check time : 140ms
console write time    : 0ms

[api-updater (non-obsolete-error-filter)] 2022-12-02 PM 11:31:24 : Starting C:/Program Files/Unity/Hub/Editor/2020.3.22f1/Editor/Data/Tools/ScriptUpdater/APIUpdater.NonObsoleteApiUpdaterDetector.exe
[api-updater (non-obsolete-error-filter)] 
----------------------------------
jit/startup time      : 964.5857ms
moved types parse time: 59ms
candidates parse time : 1ms
C# parse time         : 338ms
candidates check time : 41ms
console write time    : 0ms

[api-updater (non-obsolete-error-filter)] 2022-12-02 PM 11:38:33 : Starting C:/Program Files/Unity/Hub/Editor/2020.3.22f1/Editor/Data/Tools/ScriptUpdater/APIUpdater.NonObsoleteApiUpdaterDetector.exe
[api-updater (non-obsolete-error-filter)] 
----------------------------------
jit/startup time      : 136.6346ms
moved types parse time: 76ms
candidates parse time : 1ms
C# parse time         : 278ms
candidates check time : 49ms
console write time    : 0ms

